/* XPM */
static char * landscape_xpm[] = {
"37 30 5 1",
" 	c None",
".	c #000000",
"+	c #FFFFFF",
"@	c #BFBFBF",
"#	c #7F7F7F",
".................................    ",
".+++++++++++++++++++++++++++++++..   ",
".+++++++++++++++++++++++++++++++.+.  ",
".+++++++++++++++++++++++++++++++.++. ",
".+++++++++++++++++++++++++++++++.....",
".+++++++++++++++++++++++++++++++++++.",
".+++++++++++++++++++++++++++++++++++.",
".+++++@@@@@@@@@@@@@@@@@+++++++++++++.",
".+++++#################+++++++++++++.",
".+++++++++++++++++++++++++++++++++++.",
".+++++++++++++++++++++++++++++++++++.",
".+++@@@@@@@@@@@@@@@@@@@@@@@@@@@@++++.",
".+++############################++++.",
".+++++++++++++++++++++++++++++++++++.",
".+++++++++++++++++++++++++++++++++++.",
".+++@@@@@@@@@@@@@@@@@@@@@@@@@@@@++++.",
".+++############################++++.",
".+++++++++++++++++++++++++++++++++++.",
".+++++++++++++++++++++++++++++++++++.",
".+++@@@@@@@@@@@@@@@@@@@@@@@@@@@@++++.",
".+++############################++++.",
".+++++++++++++++++++++++++++++++++++.",
".+++++++++++++++++++++++++++++++++++.",
".+++@@@@@@@@@@@@@@@@@@@@@@@@@@@@++++.",
".+++############################++++.",
".+++++++++++++++++++++++++++++++++++.",
".+++++++++++++++++++++++++++++++++++.",
".+++++++++++++++++++++++++++++++++++.",
".+++++++++++++++++++++++++++++++++++.",
"....................................."};
